<svg xmlns="http://www.w3.org/2000/svg" width="12.935" height="8.866" viewBox="0 0 12.935 8.866">
  <g id="icon_more" data-name="icon more" transform="translate(-284.185 -478.349)">
    <line id="Line_2" data-name="Line 2" x2="11.33" transform="translate(284.185 482.781)" fill="none" stroke="#267ba6" stroke-miterlimit="10" stroke-width="2"/>
    <path id="Path_737" data-name="Path 737" d="M15.779,16.439l-.379-.6,1.949-2.918L15.4,10l.379-.6,2.382,3.519Z" transform="translate(278.354 469.862)" fill="none" stroke="#267ba6" stroke-width="1"/>
  </g>
</svg>
