<svg xmlns="http://www.w3.org/2000/svg" width="5.117" height="13.678" viewBox="0 0 5.117 13.678">
  <path id="bg" d="M-20884.727-18853.8l5.117,12.73v-13.678Z" transform="translate(20884.727 18854.75)" fill="#970125"/>
</svg>
