<svg xmlns="http://www.w3.org/2000/svg" width="60.539" height="56.096" viewBox="0 0 60.539 56.096">
  <g id="icon-diagram" transform="translate(-96 -212)">
    <rect id="Rectangle_1560" data-name="Rectangle 1560" width="55.539" height="36.096" rx="3" transform="translate(101 232)" fill="#ffda00"/>
    <g id="Rectangle_1559" data-name="Rectangle 1559" transform="translate(96 212)" fill="none" stroke="#000" stroke-width="1">
      <rect width="55.539" height="51.096" rx="3" stroke="none"/>
      <rect x="0.5" y="0.5" width="54.539" height="50.096" rx="2.5" fill="none"/>
    </g>
    <line id="Line_337" data-name="Line 337" x2="55.983" transform="translate(96.222 228.217)" fill="none" stroke="#000" stroke-width="1"/>
    <line id="Line_338" data-name="Line 338" x2="3.999" transform="translate(102.887 220.22)" fill="none" stroke="#000" stroke-width="1"/>
    <line id="Line_339" data-name="Line 339" x2="3.999" transform="translate(113.55 220.22)" fill="none" stroke="#000" stroke-width="1"/>
    <line id="Line_340" data-name="Line 340" x2="11.552" transform="translate(133.544 220.22)" fill="none" stroke="#000" stroke-width="1"/>
    <text id="_4_" data-name="4%" transform="translate(125 251)" font-size="12" font-family="MullerRegular, Muller" letter-spacing="-0.025em"><tspan x="0" y="0">4%</tspan></text>
    <path id="Path_1339" data-name="Path 1339" d="M104.367,254l2.7-4.822,1.349,1.961,5.271-6.5.98,3.31,3.311-7.233,2.574,2.452,6.007-8.214" fill="none" stroke="#000" stroke-width="1"/>
  </g>
</svg>
